<?xml version='1.0' encoding='UTF-8'?>
<!-- This file was generated by dvisvgm 2.13.3 -->
<svg version='1.1' xmlns='http://www.w3.org/2000/svg' xmlns:xlink='http://www.w3.org/1999/xlink' width='187.6993pt' height='163.7852pt' viewBox='-72.00005 -72.00005 187.6993 163.7852'>
<defs>
<font id='cmr10' horiz-adv-x='0'>
<font-face font-family='cmr10' units-per-em='1000' ascent='750' descent='250'/>
<glyph unicode='1' horiz-adv-x='500' vert-adv-y='500' glyph-name='one' d='M294 640C294 664 294 666 271 666C209 602 121 602 89 602V571C109 571 168 571 220 597V79C220 43 217 31 127 31H95V0C130 3 217 3 257 3S384 3 419 0V31H387C297 31 294 42 294 79V640Z'/>
<glyph unicode='A' horiz-adv-x='750' vert-adv-y='750' glyph-name='A' d='M398 696C393 709 391 716 375 716S356 710 351 696L144 98C126 47 86 32 32 31V0C55 1 98 3 134 3C165 3 217 1 249 0V31C199 31 174 56 174 82C174 85 175 95 176 97L222 228H469L522 75C523 71 525 65 525 61C525 31 469 31 442 31V0C478 3 548 3 586 3C629 3 675 2 717 0V31H699C639 31 625 38 614 71L398 696ZM345 584L458 259H233L345 584Z'/>
<glyph unicode='B' horiz-adv-x='708' vert-adv-y='708' glyph-name='B' d='M222 366V612C222 645 224 652 271 652H395C492 652 527 567 527 514C527 450 478 366 367 366H222ZM458 357C555 376 624 440 624 514C624 601 532 683 402 683H36V652H60C137 652 139 641 139 605V78C139 42 137 31 60 31H36V0H428C561 0 651 89 651 183C651 270 569 345 458 357ZM396 31H271C224 31 222 38 222 71V344H410C509 344 551 251 551 184C551 113 499 31 396 31Z'/>
<glyph unicode='C' horiz-adv-x='722' vert-adv-y='722' glyph-name='C' d='M56 342C56 135 218-22 404-22C567-22 665 117 665 233C665 243 665 250 652 250C641 250 641 244 640 234C632 91 525 9 416 9C355 9 159 43 159 341C159 640 354 674 415 674C524 674 613 583 633 437C635 423 635 420 649 420C665 420 665 423 665 444V681C665 698 665 705 654 705C650 705 646 705 638 693L588 619C551 655 500 705 404 705C217 705 56 546 56 342Z'/>
<glyph unicode='D' horiz-adv-x='763' vert-adv-y='763' glyph-name='D' d='M35 683V652H59C136 652 138 641 138 605V78C138 42 136 31 59 31H35V0H401C569 0 707 148 707 336C707 526 572 683 401 683H35ZM273 31C226 31 224 38 224 71V612C224 645 226 652 273 652H373C435 652 504 630 555 559C598 500 607 414 607 336C607 225 588 165 552 116C532 89 475 31 374 31H273Z'/>
<glyph unicode='M' horiz-adv-x='916' vert-adv-y='916' glyph-name='M' d='M241 661C232 683 229 683 206 683H37V652H61C138 652 140 641 140 605V105C140 78 140 31 37 31V0C72 1 121 3 154 3S236 1 271 0V31C168 31 168 78 168 105V644H169L410 22C415 9 420 0 430 0C441 0 444 8 448 19L694 652H695V78C695 42 693 31 616 31H592V0C629 3 697 3 736 3S842 3 879 0V31H855C778 31 776 42 776 78V605C776 641 778 652 855 652H879V683H710C684 683 684 682 677 664L458 101L241 661Z'/>
<glyph unicode='N' horiz-adv-x='750' vert-adv-y='750' glyph-name='N' d='M232 670C223 682 222 683 203 683H33V652H62C77 652 97 651 112 650C135 647 136 646 136 627V105C136 78 136 31 33 31V0C68 1 117 3 150 3S232 1 267 0V31C164 31 164 78 164 105V625C169 620 170 619 174 613L582 13C591 1 592 0 599 0C613 0 613 7 613 26V578C613 605 613 652 716 652V683C681 682 632 680 599 680S517 682 482 683V652C585 652 585 605 585 578V151L232 670Z'/>
<glyph unicode='R' horiz-adv-x='736' vert-adv-y='736' glyph-name='R' d='M224 353V612C224 635 224 647 246 650C256 652 285 652 305 652C395 652 507 648 507 503C507 434 483 353 335 353H224ZM435 340C532 364 610 425 610 503C610 599 496 683 349 683H35V652H59C136 652 138 641 138 605V78C138 42 136 31 59 31H35V0C71 3 142 3 181 3S291 3 327 0V31H303C226 31 224 42 224 78V331H339C355 331 397 331 432 297C470 261 470 230 470 163C470 98 470 58 511 20C552-16 607-22 637-22C715-22 732 60 732 88C732 94 732 105 719 105C708 105 708 96 707 89C701 18 666 0 641 0C592 0 584 51 570 144L557 224C539 288 490 321 435 340Z'/>
</font>
</defs>
<style type='text/css'>
<![CDATA[text.f0 {font-family:cmr10;font-size:9.96264px}
]]>
</style>
<g id='page1'>
<path d='M35.9375 9.894532L21.847656-4.1992L7.7578 9.894532L21.847656 23.9844Z' fill='#fff1e6'/>
<path d='M35.9375 9.894532L21.847656-4.1992L7.7578 9.894532L21.847656 23.9844Z' stroke='#a35e1a' fill='none' stroke-width='.3985' stroke-miterlimit='10'/>
<text class='f0' x='21.848169' y='9.893001' transform='matrix(1 0 0 1 -3.6668 3.4039)'>R</text>
<path d='M-71.8008 21.8477H-23.9805V-2.0625H-71.8008Z' fill='#f2f2ff'/>
<path d='M-71.8008 21.8477H-23.9805V-2.0625H-71.8008Z' stroke='#323f99' fill='none' stroke-width='.3985' stroke-miterlimit='10'/>
<text class='f0' x='21.848169' y='9.893001' transform='matrix(1 0 0 1 -73.4755 3.4039)'>A</text>
<path d='M-23.7812 9.894532H7.4727' stroke='#000' fill='none' stroke-width='2.29141' stroke-miterlimit='10'/>
<path d='M-23.7812 9.894532H7.4727' stroke='#fff' fill='none' stroke-width='1.49442' stroke-miterlimit='10'/>
<path d='M-13.9648 16.42188H-2.3437V3.36328H-13.9648Z' fill='#fff'/>
<text class='f0' x='21.848169' y='9.893001' transform='matrix(1 0 0 1 -32.4925 3.2102)'>1</text>
<path d='M-2.0625-47.8906H45.7578V-71.8008H-2.0625Z' fill='#f2f2ff'/>
<path d='M-2.0625-47.8906H45.7578V-71.8008H-2.0625Z' stroke='#323f99' fill='none' stroke-width='.3985' stroke-miterlimit='10'/>
<text class='f0' x='21.848169' y='9.893001' transform='matrix(1 0 0 1 -3.5285 -66.3355)'>B</text>
<path d='M21.847656-47.6914V-4.4805' stroke='#000' fill='none' stroke-width='.3985' stroke-miterlimit='10'/>
<path d='M16.03516-19.5547H27.66016V-32.6172H16.03516Z' fill='#fff'/>
<text class='f0' x='21.848169' y='9.893001' transform='matrix(1 0 0 1 -2.4907 -32.7692)'>1</text>
<path d='M67.6758 21.8477H115.5V-2.0625H67.6758Z' fill='#f2f2ff'/>
<path d='M67.6758 21.8477H115.5V-2.0625H67.6758Z' stroke='#323f99' fill='none' stroke-width='.3985' stroke-miterlimit='10'/>
<text class='f0' x='21.848169' y='9.893001' transform='matrix(1 0 0 1 66.1418 3.4039)'>C</text>
<path d='M67.4766 9.894532H36.2227' stroke='#000' fill='none' stroke-width='2.29141' stroke-miterlimit='10'/>
<path d='M67.4766 9.894532H36.2227' stroke='#fff' fill='none' stroke-width='1.49442' stroke-miterlimit='10'/>
<path d='M44.793 16.61719H58.9063V3.16797H44.793Z' fill='#fff'/>
<text class='f0' x='21.848169' y='9.893001' transform='matrix(1 0 0 1 26.2657 3.4039)'>N</text>
<path d='M-2.0625 91.5859H45.7578V67.6758H-2.0625Z' fill='#f2f2ff'/>
<path d='M-2.0625 91.5859H45.7578V67.6758H-2.0625Z' stroke='#323f99' fill='none' stroke-width='.3985' stroke-miterlimit='10'/>
<text class='f0' x='21.848169' y='9.893001' transform='matrix(1 0 0 1 -3.8052 73.1434)'>D</text>
<path d='M21.847656 67.4766V24.2656' stroke='#000' fill='none' stroke-width='2.29141' stroke-miterlimit='10'/>
<path d='M21.847656 67.4766V24.2656' stroke='#fff' fill='none' stroke-width='1.49442' stroke-miterlimit='10'/>
<path d='M13.96094 52.5977H29.73438V39.1484H13.96094Z' fill='#fff'/>
<text class='f0' x='21.848169' y='9.893001' transform='matrix(1 0 0 1 -4.5663 39.3834)'>M</text>
</g>
</svg>