<?xml version="1.0" encoding="UTF-8" standalone="no"?>
<!DOCTYPE svg PUBLIC "-//W3C//DTD SVG 1.1//EN" "http://www.w3.org/Graphics/SVG/1.1/DTD/svg11.dtd">
<svg xmlns="http://www.w3.org/2000/svg" xmlns:xlink="http://www.w3.org/1999/xlink" version="1.1" width="202.95pt" height="80.19pt" viewBox="0 0 202.95 80.19">
<g enable-background="new">
<clipPath id="cp0">
<path transform="matrix(1,0,0,-1,-513.81,528.83999)" d="M 0 0 L 792 0 L 792 612 L 0 612 Z "/>
</clipPath>
<g clip-path="url(#cp0)">
<path transform="matrix(.8,0,0,-.8,-351.80039,19.315552)" d="M 16.12796 0 L 0 16.12796 L -16.12796 0 L 0 -16.12796 Z " fill="#fff1e6"/>
<path transform="matrix(.8,0,0,-.8,-351.80039,19.315552)" stroke-width=".3985" stroke-linecap="butt" stroke-miterlimit="10" stroke-linejoin="miter" fill="none" stroke="#a35e1a" d="M 16.12796 0 L 0 16.12796 L -16.12796 0 L 0 -16.12796 Z "/>
<text xml:space="preserve" transform="matrix(1.2 0 -0 1.2 -573.33206 670.814)" font-size="7.9701" font-family="CMR8"><tspan y="-540.192" x="181.495">R</tspan></text>
<path transform="matrix(.8,0,0,-.8,-351.80039,19.315552)" d="M -116.688 -14.44601 L -58.903944 -14.44601 L -58.903944 14.446021 L -116.688 14.446021 Z " fill="#f2f2ff"/>
<path transform="matrix(.8,0,0,-.8,-351.80039,19.315552)" stroke-width=".3985" stroke-linecap="butt" stroke-miterlimit="10" stroke-linejoin="miter" fill="none" stroke="#323f99" d="M -116.688 -14.44601 L -58.903944 -14.44601 L -58.903944 14.446021 L -116.688 14.446021 Z "/>
<text xml:space="preserve" transform="matrix(.8 0 -0 .8 -500.734 454.73719)" font-size="11.9552" font-family="CMR12"><tspan y="-540.192" x="93.985">A</tspan></text>
<path transform="matrix(.8,0,0,-.8,-351.80039,19.315552)" stroke-width=".3985" stroke-linecap="butt" stroke-miterlimit="10" stroke-linejoin="miter" fill="none" stroke="#000000" d="M -58.7047 0 L -16.55214 0 "/>
<path transform="matrix(.8,0,0,-.8,-351.80039,19.315552)" d="M -32.5073 5.8154 L -42.74953 5.8154 L -42.74953 -5.81538 L -32.5073 -5.81538 Z M -42.74953 -5.81538 " fill="#ffffff"/>
<text xml:space="preserve" transform="matrix(.6 0 -0 .6 -471.465 346.45957)" font-size="11.9552" font-family="CMR12"><tspan y="-541.388" x="146.345">1</tspan></text>
<path transform="matrix(.8,0,0,-.8,-351.80039,19.315552)" d="M -28.89203 61.64383 L 28.89203 61.64383 L 28.89203 90.53586 L -28.89203 90.53586 Z " fill="#f2f2ff"/>
<path transform="matrix(.8,0,0,-.8,-351.80039,19.315552)" stroke-width=".3985" stroke-linecap="butt" stroke-miterlimit="10" stroke-linejoin="miter" fill="none" stroke="#323f99" d="M -28.89203 61.64383 L 28.89203 61.64383 L 28.89203 90.53586 L -28.89203 90.53586 Z "/>
<text xml:space="preserve" transform="matrix(.8 0 -0 .8 -500.73396 454.73716)" font-size="11.9552" font-family="CMR12"><tspan y="-616.281" x="182.023">B</tspan></text>
<path transform="matrix(.8,0,0,-.8,-351.80039,19.315552)" stroke-width=".3985" stroke-linecap="butt" stroke-miterlimit="10" stroke-linejoin="miter" fill="none" stroke="#000000" d="M 0 61.44458 L 0 16.55226 "/>
<path transform="matrix(.8,0,0,-.8,-351.80039,19.315552)" d="M 6.217 44.98817 L -6.217 44.98817 L -6.217 33.00867 L 6.217 33.00867 Z M -6.217 33.00867 " fill="#ffffff"/>
<text xml:space="preserve" transform="matrix(.6 0 -0 .6 -464.15858 338.69499)" font-size="11.9552" font-family="CMR12"><tspan y="-580.211" x="182.877">N</tspan></text>
<path transform="matrix(.8,0,0,-.8,-351.80039,19.315552)" d="M 58.90395 -14.44601 L 116.68801 -14.44601 L 116.68801 14.446021 L 58.90395 14.446021 Z " fill="#f2f2ff"/>
<path transform="matrix(.8,0,0,-.8,-351.80039,19.315552)" stroke-width=".3985" stroke-linecap="butt" stroke-miterlimit="10" stroke-linejoin="miter" fill="none" stroke="#323f99" d="M 58.90395 -14.44601 L 116.68801 -14.44601 L 116.68801 14.446021 L 58.90395 14.446021 Z "/>
<text xml:space="preserve" transform="matrix(.8 0 -0 .8 -500.73399 454.73719)" font-size="11.9552" font-family="CMR12"><tspan y="-540.192" x="269.735">C</tspan></text>
<path transform="matrix(.8,0,0,-.8,-351.80039,19.315552)" stroke-width=".3985" stroke-linecap="butt" stroke-miterlimit="10" stroke-linejoin="miter" fill="none" stroke="#000000" d="M 58.7047 0 L 16.55214 0 "/>
<path transform="matrix(.8,0,0,-.8,-351.80039,19.315552)" d="M 43.84541 5.98976 L 31.4114 5.98976 L 31.4114 -5.98975 L 43.84541 -5.98975 Z M 31.4114 -5.98975 " fill="#ffffff"/>
<text xml:space="preserve" transform="matrix(.6 0 -0 .6 -456.633 346.49458)" font-size="11.9552" font-family="CMR12"><tspan y="-541.213" x="220.505">N</tspan></text>
<path transform="matrix(.8,0,0,-.8,-351.80039,19.315552)" d="M -28.89203 -90.53586 L 28.89203 -90.53586 L 28.89203 -61.64383 L -28.89203 -61.64383 Z " fill="#f2f2ff"/>
<path transform="matrix(.8,0,0,-.8,-351.80039,19.315552)" stroke-width=".3985" stroke-linecap="butt" stroke-miterlimit="10" stroke-linejoin="miter" fill="none" stroke="#323f99" d="M -28.89203 -90.53586 L 28.89203 -90.53586 L 28.89203 -61.64383 L -28.89203 -61.64383 Z "/>
<text xml:space="preserve" transform="matrix(.8 0 -0 .8 -500.73399 454.73719)" font-size="11.9552" font-family="CMR12"><tspan y="-464.103" x="181.697">D</tspan></text>
<path transform="matrix(.8,0,0,-.8,-351.80039,19.315552)" stroke-width=".3985" stroke-linecap="butt" stroke-miterlimit="10" stroke-linejoin="miter" fill="none" stroke="#000000" d="M 0 -61.44458 L 0 -16.55226 "/>
<path transform="matrix(.8,0,0,-.8,-351.80039,19.315552)" d="M 6.217 -33.00865 L -6.217 -33.00865 L -6.217 -44.98816 L 6.217 -44.98816 Z M -6.217 -44.98816 " fill="#ffffff"/>
<text xml:space="preserve" transform="matrix(.6 0 -0 .6 -464.15858 354.29417)" font-size="11.9552" font-family="CMR12"><tspan y="-502.215" x="182.877">N</tspan></text>
<text xml:space="preserve" transform="matrix(.8 0 -0 .8 -500.73399 454.73713)" font-size="11.9552" font-family="CMBX12" font-weight="bold"><tspan y="-377.404" x="177.575 182.81137 189.54215">(1)</tspan></text>
<path transform="matrix(.8,0,0,-.8,-351.80039,19.315552)" d="M 299.54389 0 L 283.46824 16.07564 L 267.39256 0 L 283.46824 -16.07564 Z " fill="#fff1e6"/>
<path transform="matrix(.8,0,0,-.8,-351.80039,19.315552)" stroke-width="2.62827" stroke-linecap="butt" stroke-miterlimit="10" stroke-linejoin="miter" fill="none" stroke="#a35e1a" d="M 299.54389 0 L 283.46824 16.07564 L 267.39256 0 L 283.46824 -16.07564 Z "/>
<path transform="matrix(.8,0,0,-.8,-351.80039,19.315552)" stroke-width="1.49442" stroke-linecap="butt" stroke-miterlimit="10" stroke-linejoin="miter" fill="none" stroke="#ffffff" d="M 299.54389 0 L 283.46824 16.07564 L 267.39256 0 L 283.46824 -16.07564 Z "/>
<text xml:space="preserve" transform="matrix(1.2 0 -0 1.2 -686.718 670.814)" font-size="7.9701" font-family="CMR8"><tspan y="-540.192" x="464.96">R</tspan></text>
<path transform="matrix(.8,0,0,-.8,-351.80039,19.315552)" d="M 166.7802 -14.44601 L 224.56426 -14.44601 L 224.56426 14.446021 L 166.7802 14.446021 Z " fill="#f2f2ff"/>
<path transform="matrix(.8,0,0,-.8,-351.80039,19.315552)" stroke-width=".3985" stroke-linecap="butt" stroke-miterlimit="10" stroke-linejoin="miter" fill="none" stroke="#323f99" d="M 166.7802 -14.44601 L 224.56426 -14.44601 L 224.56426 14.446021 L 166.7802 14.446021 Z "/>
<text xml:space="preserve" transform="matrix(.8 0 -0 .8 -500.73399 454.73719)" font-size="11.9552" font-family="CMR12"><tspan y="-540.192" x="377.449">A</tspan></text>
<path transform="matrix(.8,0,0,-.8,-351.80039,19.315552)" stroke-width=".3985" stroke-linecap="butt" stroke-miterlimit="10" stroke-linejoin="miter" fill="none" stroke="#000000" d="M 224.7635 0 L 266.78993 0 "/>
<path transform="matrix(.8,0,0,-.8,-351.80039,19.315552)" d="M 251.99372 5.98976 L 239.55971 5.98976 L 239.55971 -5.98975 L 251.99372 -5.98975 Z M 239.55971 -5.98975 " fill="#ffffff"/>
<text xml:space="preserve" transform="matrix(.6 0 -0 .6 -415.00398 346.49458)" font-size="11.9552" font-family="CMR12"><tspan y="-541.213" x="428.65">N</tspan></text>
<path transform="matrix(.8,0,0,-.8,-351.80039,19.315552)" d="M 342.37217 -14.44601 L 400.15623 -14.44601 L 400.15623 14.446021 L 342.37217 14.446021 Z " fill="#f2f2ff"/>
<path transform="matrix(.8,0,0,-.8,-351.80039,19.315552)" stroke-width=".3985" stroke-linecap="butt" stroke-miterlimit="10" stroke-linejoin="miter" fill="none" stroke="#323f99" d="M 342.37217 -14.44601 L 400.15623 -14.44601 L 400.15623 14.446021 L 342.37217 14.446021 Z "/>
<text xml:space="preserve" transform="matrix(.8 0 -0 .8 -500.73399 454.73719)" font-size="11.9552" font-family="CMR12"><tspan y="-540.192" x="553.282">B</tspan></text>
<path transform="matrix(.8,0,0,-.8,-351.80039,19.315552)" stroke-width=".3985" stroke-linecap="butt" stroke-miterlimit="10" stroke-linejoin="miter" fill="none" stroke="#000000" d="M 342.1729 0 L 300.1465 0 "/>
<path transform="matrix(.8,0,0,-.8,-351.80039,19.315552)" d="M 327.3767 5.98976 L 314.9427 5.98976 L 314.9427 -5.98975 L 327.3767 -5.98975 Z M 314.9427 -5.98975 " fill="#ffffff"/>
<text xml:space="preserve" transform="matrix(.6 0 -0 .6 -399.9276 346.49458)" font-size="11.9552" font-family="CMR12"><tspan y="-541.213" x="504.032">N</tspan></text>
<path transform="matrix(.8,0,0,-.8,-351.80039,19.315552)" d="M 254.57619 -90.53586 L 312.36027 -90.53586 L 312.36027 -61.64383 L 254.57619 -61.64383 Z " fill="#f2f2ff"/>
<path transform="matrix(.8,0,0,-.8,-351.80039,19.315552)" stroke-width="2.91171" stroke-linecap="butt" stroke-miterlimit="10" stroke-linejoin="miter" fill="none" stroke="#323f99" d="M 254.57619 -90.53586 L 312.36027 -90.53586 L 312.36027 -61.64383 L 254.57619 -61.64383 Z "/>
<path transform="matrix(.8,0,0,-.8,-351.80039,19.315552)" stroke-width="1.49442" stroke-linecap="butt" stroke-miterlimit="10" stroke-linejoin="miter" fill="none" stroke="#ffffff" d="M 254.57619 -90.53586 L 312.36027 -90.53586 L 312.36027 -61.64383 L 254.57619 -61.64383 Z "/>
<text xml:space="preserve" transform="matrix(.8 0 -0 .8 -500.73399 454.73719)" font-size="11.9552" font-family="CMR12"><tspan y="-464.103" x="465.405">C</tspan></text>
<path transform="matrix(.8,0,0,-.8,-351.80039,19.315552)" stroke-width="2.29141" stroke-linecap="butt" stroke-miterlimit="10" stroke-linejoin="miter" fill="none" stroke="#000000" d="M 283.46824 -61.2895 L 283.46824 -16.67828 "/>
<path transform="matrix(.8,0,0,-.8,-351.80039,19.315552)" stroke-width="1.49442" stroke-linecap="butt" stroke-miterlimit="10" stroke-linejoin="miter" fill="none" stroke="#ffffff" d="M 283.46824 -61.2895 L 283.46824 -16.67828 "/>
<path transform="matrix(.8,0,0,-.8,-351.80039,19.315552)" d="M 289.2722 -32.39305 L 277.66426 -32.39305 L 277.66426 -45.57472 L 289.2722 -45.57472 Z M 277.66426 -45.57472 " fill="#ffffff"/>
<text xml:space="preserve" transform="matrix(.68 0 -0 .68 -444.6767 394.49488)" font-size="11.9552" font-family="CMR12"><tspan y="-502.019" x="467.144">1</tspan></text>
<text xml:space="preserve" transform="matrix(.8 0 -0 .8 -500.73399 454.73713)" font-size="11.9552" font-family="CMBX12" font-weight="bold"><tspan y="-377.404" x="461.039 466.2754 473.00617">(2)</tspan></text>
<path transform="matrix(.8,0,0,-.8,-351.80039,19.315552)" d="M 583.0644 0 L 566.9364 16.12796 L 550.8085 0 L 566.9364 -16.12796 Z " fill="#fff1e6"/>
<path transform="matrix(.8,0,0,-.8,-351.80039,19.315552)" stroke-width=".3985" stroke-linecap="butt" stroke-miterlimit="10" stroke-linejoin="miter" fill="none" stroke="#a35e1a" d="M 583.0644 0 L 566.9364 16.12796 L 550.8085 0 L 566.9364 -16.12796 Z "/>
<text xml:space="preserve" transform="matrix(1.2 0 -0 1.2 -798.8337 670.814)" font-size="7.9701" font-family="CMR8"><tspan y="-540.192" x="745.249 751.4816">R1</tspan></text>
<path transform="matrix(.8,0,0,-.8,-351.80039,19.315552)" d="M 583.0644 -54.48244 L 566.9364 -38.35448 L 550.8085 -54.48244 L 566.9364 -70.6104 Z " fill="#fff1e6"/>
<path transform="matrix(.8,0,0,-.8,-351.80039,19.315552)" stroke-width=".3985" stroke-linecap="butt" stroke-miterlimit="10" stroke-linejoin="miter" fill="none" stroke="#a35e1a" d="M 583.0644 -54.48244 L 566.9364 -38.35448 L 550.8085 -54.48244 L 566.9364 -70.6104 Z "/>
<text xml:space="preserve" transform="matrix(1.2 0 -0 1.2 -798.8337 649.0211)" font-size="7.9701" font-family="CMR8"><tspan y="-485.71" x="745.249 751.4816">R2</tspan></text>
<path transform="matrix(.8,0,0,-.8,-351.80039,19.315552)" d="M 450.2484 -40.18318 L 508.03248 -40.18318 L 508.03248 -11.291151 L 450.2484 -11.291151 Z " fill="#f2f2ff"/>
<path transform="matrix(.8,0,0,-.8,-351.80039,19.315552)" stroke-width=".3985" stroke-linecap="butt" stroke-miterlimit="10" stroke-linejoin="miter" fill="none" stroke="#323f99" d="M 450.2484 -40.18318 L 508.03248 -40.18318 L 508.03248 -11.291151 L 450.2484 -11.291151 Z "/>
<text xml:space="preserve" transform="matrix(.8 0 -0 .8 -500.73399 454.73719)" font-size="11.9552" font-family="CMR12"><tspan y="-514.455" x="660.914">A</tspan></text>
<path transform="matrix(.8,0,0,-.8,-351.80039,19.315552)" stroke-width=".3985" stroke-linecap="butt" stroke-miterlimit="10" stroke-linejoin="miter" fill="none" stroke="#000000" d="M 508.23176 -17.21523 L 554.13607 -3.7521 "/>
<path transform="matrix(.8,0,0,-.8,-351.80039,19.315552)" d="M 537.4009 -4.49391 L 524.96688 -4.49391 L 524.96688 -16.47342 L 537.4009 -16.47342 Z M 524.96688 -16.47342 " fill="#ffffff"/>
<text xml:space="preserve" transform="matrix(.6 0 -0 .6 -357.9232 348.59114)" font-size="11.9552" font-family="CMR12"><tspan y="-530.73" x="714.054">N</tspan></text>
<path transform="matrix(.8,0,0,-.8,-351.80039,19.315552)" d="M 450.2484 -40.18318 L 508.03248 -40.18318 L 508.03248 -11.291151 L 450.2484 -11.291151 Z " fill="#f2f2ff"/>
<path transform="matrix(.8,0,0,-.8,-351.80039,19.315552)" stroke-width=".3985" stroke-linecap="butt" stroke-miterlimit="10" stroke-linejoin="miter" fill="none" stroke="#323f99" d="M 450.2484 -40.18318 L 508.03248 -40.18318 L 508.03248 -11.291151 L 450.2484 -11.291151 Z "/>
<text xml:space="preserve" transform="matrix(.8 0 -0 .8 -500.73399 454.73719)" font-size="11.9552" font-family="CMR12"><tspan y="-514.455" x="660.914">A</tspan></text>
<path transform="matrix(.8,0,0,-.8,-351.80039,19.315552)" stroke-width=".3985" stroke-linecap="butt" stroke-miterlimit="10" stroke-linejoin="miter" fill="none" stroke="#000000" d="M 508.23176 -35.253 L 554.4667 -50.39978 "/>
<path transform="matrix(.8,0,0,-.8,-351.80039,19.315552)" d="M 536.47036 -37.01097 L 526.2281 -37.01097 L 526.2281 -48.64178 L 536.47036 -48.64178 Z M 526.2281 -48.64178 " fill="#ffffff"/>
<text xml:space="preserve" transform="matrix(.6 0 -0 .6 -357.671 355.02476)" font-size="11.9552" font-family="CMR12"><tspan y="-498.562" x="715.315">1</tspan></text>
<path transform="matrix(.8,0,0,-.8,-351.80039,19.315552)" d="M 625.8404 -40.18318 L 683.62448 -40.18318 L 683.62448 -11.291151 L 625.8404 -11.291151 Z " fill="#f2f2ff"/>
<path transform="matrix(.8,0,0,-.8,-351.80039,19.315552)" stroke-width=".3985" stroke-linecap="butt" stroke-miterlimit="10" stroke-linejoin="miter" fill="none" stroke="#323f99" d="M 625.8404 -40.18318 L 683.62448 -40.18318 L 683.62448 -11.291151 L 625.8404 -11.291151 Z "/>
<text xml:space="preserve" transform="matrix(.8 0 -0 .8 -500.73399 454.73719)" font-size="11.9552" font-family="CMR12"><tspan y="-514.455" x="836.747">B</tspan></text>
<path transform="matrix(.8,0,0,-.8,-351.80039,19.315552)" stroke-width=".3985" stroke-linecap="butt" stroke-miterlimit="10" stroke-linejoin="miter" fill="none" stroke="#000000" d="M 625.6411 -17.21523 L 579.7368 -3.7521 "/>
<path transform="matrix(.8,0,0,-.8,-351.80039,19.315552)" d="M 607.8101 -4.66826 L 597.5679 -4.66826 L 597.5679 -16.29907 L 607.8101 -16.29907 Z M 597.5679 -16.29907 " fill="#ffffff"/>
<text xml:space="preserve" transform="matrix(.6 0 -0 .6 -343.40318 348.55638)" font-size="11.9552" font-family="CMR12"><tspan y="-530.904" x="786.654">1</tspan></text>
<path transform="matrix(.8,0,0,-.8,-351.80039,19.315552)" d="M 625.8404 -40.18318 L 683.62448 -40.18318 L 683.62448 -11.291151 L 625.8404 -11.291151 Z " fill="#f2f2ff"/>
<path transform="matrix(.8,0,0,-.8,-351.80039,19.315552)" stroke-width=".3985" stroke-linecap="butt" stroke-miterlimit="10" stroke-linejoin="miter" fill="none" stroke="#323f99" d="M 625.8404 -40.18318 L 683.62448 -40.18318 L 683.62448 -11.291151 L 625.8404 -11.291151 Z "/>
<text xml:space="preserve" transform="matrix(.8 0 -0 .8 -500.73399 454.73719)" font-size="11.9552" font-family="CMR12"><tspan y="-514.455" x="836.747">B</tspan></text>
<path transform="matrix(.8,0,0,-.8,-351.80039,19.315552)" stroke-width=".3985" stroke-linecap="butt" stroke-miterlimit="10" stroke-linejoin="miter" fill="none" stroke="#000000" d="M 625.6411 -35.253 L 579.4062 -50.39978 "/>
<path transform="matrix(.8,0,0,-.8,-351.80039,19.315552)" d="M 608.74069 -36.83662 L 596.30667 -36.83662 L 596.30667 -48.81613 L 608.74069 -48.81613 Z M 596.30667 -48.81613 " fill="#ffffff"/>
<text xml:space="preserve" transform="matrix(.6 0 -0 .6 -343.65538 355.05976)" font-size="11.9552" font-family="CMR12"><tspan y="-498.387" x="785.393">N</tspan></text>
<text xml:space="preserve" transform="matrix(.8 0 -0 .8 -500.734 454.73713)" font-size="11.9552" font-family="CMBX12" font-weight="bold"><tspan y="-377.404" x="744.504 749.7404 756.4712">(3)</tspan></text>
<text xml:space="preserve" transform="matrix(1 0 -0 1 -513.81 528.83999)" font-size="11.9552" font-family="CMR12"><tspan y="0" x="394.07">1</tspan></text>
</g>
</g>
</svg>
