<?xml version="1.0" encoding="UTF-8" standalone="no"?>
<!DOCTYPE svg PUBLIC "-//W3C//DTD SVG 1.1//EN" "http://www.w3.org/Graphics/SVG/1.1/DTD/svg11.dtd">
<svg xmlns="http://www.w3.org/2000/svg" xmlns:xlink="http://www.w3.org/1999/xlink" version="1.1" width="200.97pt" height="174.24pt" viewBox="0 0 200.97 174.24">
<g enable-background="new">
<clipPath id="cp0">
<path transform="matrix(1,0,0,-1,-62.37,587.25)" d="M 0 0 L 792 0 L 792 612 L 0 612 Z "/>
</clipPath>
<g clip-path="url(#cp0)">
<path transform="matrix(.8,0,0,-.8,-127.13161,87.08999)" d="M 299.5962 0 L 283.46824 16.12796 L 267.34028 0 L 283.46824 -16.12796 Z " fill="#fff1e6"/>
<path transform="matrix(.8,0,0,-.8,-127.13161,87.08999)" stroke-width=".3985" stroke-linecap="butt" stroke-miterlimit="10" stroke-linejoin="miter" fill="none" stroke="#a35e1a" d="M 299.5962 0 L 283.46824 16.12796 L 267.34028 0 L 283.46824 -16.12796 Z "/>
<text xml:space="preserve" transform="matrix(1.2 0 -0 1.2 -121.89201 710.2336)" font-size="7.9701" font-family="CMR8"><tspan y="-516.563" x="181.495">R</tspan></text>
<path transform="matrix(.8,0,0,-.8,-127.13161,87.08999)" d="M 166.7802 -14.44601 L 224.56426 -14.44601 L 224.56426 14.446021 L 166.7802 14.446021 Z " fill="#f2f2ff"/>
<path transform="matrix(.8,0,0,-.8,-127.13161,87.08999)" stroke-width=".3985" stroke-linecap="butt" stroke-miterlimit="10" stroke-linejoin="miter" fill="none" stroke="#323f99" d="M 166.7802 -14.44601 L 224.56426 -14.44601 L 224.56426 14.446021 L 166.7802 14.446021 Z "/>
<text xml:space="preserve" transform="matrix(.8 0 -0 .8 -49.294008 503.6084)" font-size="11.9552" font-family="CMR12"><tspan y="-516.563" x="93.985">A</tspan></text>
<path transform="matrix(.8,0,0,-.8,-127.13161,87.08999)" stroke-width=".3985" stroke-linecap="butt" stroke-miterlimit="10" stroke-linejoin="miter" fill="none" stroke="#000000" d="M 224.7635 0 L 266.91609 0 "/>
<path transform="matrix(.8,0,0,-.8,-127.13161,87.08999)" d="M 259.49665 7.40945 L 232.18296 7.40945 L 232.18296 -7.40945 L 259.49665 -7.40945 Z M 232.18296 -7.40945 " fill="#ffffff"/>
<text xml:space="preserve" transform="matrix(.6 0 -0 .6 -21.732209 399.9272)" font-size="11.9552" font-family="CMR12"><tspan y="-518.406" x="137.809 142.36394 148.22199 155.3712 161.87483">(a,b)</tspan></text>
<path transform="matrix(.8,0,0,-.8,-127.13161,87.08999)" d="M 342.37217 -14.44601 L 400.15623 -14.44601 L 400.15623 14.446021 L 342.37217 14.446021 Z " fill="#f2f2ff"/>
<path transform="matrix(.8,0,0,-.8,-127.13161,87.08999)" stroke-width=".3985" stroke-linecap="butt" stroke-miterlimit="10" stroke-linejoin="miter" fill="none" stroke="#323f99" d="M 342.37217 -14.44601 L 400.15623 -14.44601 L 400.15623 14.446021 L 342.37217 14.446021 Z "/>
<text xml:space="preserve" transform="matrix(.8 0 -0 .8 -49.293977 503.6084)" font-size="11.9552" font-family="CMR12"><tspan y="-516.563" x="269.817">B</tspan></text>
<path transform="matrix(.8,0,0,-.8,-127.13161,87.08999)" stroke-width=".3985" stroke-linecap="butt" stroke-miterlimit="10" stroke-linejoin="miter" fill="none" stroke="#000000" d="M 342.1729 0 L 300.02037 0 "/>
<path transform="matrix(.8,0,0,-.8,-127.13161,87.08999)" d="M 334.5096 7.40945 L 307.6837 7.40945 L 307.6837 -7.40945 L 334.5096 -7.40945 Z M 307.6837 -7.40945 " fill="#ffffff"/>
<text xml:space="preserve" transform="matrix(.6 0 -0 .6 -6.632225 399.9272)" font-size="11.9552" font-family="CMR12"><tspan y="-518.406" x="213.309 217.86394 223.06446 230.21367 236.7173">(c,d)</tspan></text>
<path transform="matrix(.8,0,0,-.8,-127.13161,87.08999)" d="M 254.57619 -102.24199 L 312.36027 -102.24199 L 312.36027 -73.34996 L 254.57619 -73.34996 Z " fill="#f2f2ff"/>
<path transform="matrix(.8,0,0,-.8,-127.13161,87.08999)" stroke-width=".3985" stroke-linecap="butt" stroke-miterlimit="10" stroke-linejoin="miter" fill="none" stroke="#323f99" d="M 254.57619 -102.24199 L 312.36027 -102.24199 L 312.36027 -73.34996 L 254.57619 -73.34996 Z "/>
<text xml:space="preserve" transform="matrix(.8 0 -0 .8 -49.294008 503.6084)" font-size="11.9552" font-family="CMR12"><tspan y="-428.768" x="181.94">C</tspan></text>
<path transform="matrix(.8,0,0,-.8,-127.13161,87.08999)" stroke-width=".3985" stroke-linecap="butt" stroke-miterlimit="10" stroke-linejoin="miter" fill="none" stroke="#000000" d="M 283.46824 -73.15071 L 283.46824 -16.55214 "/>
<path transform="matrix(.8,0,0,-.8,-127.13161,87.08999)" d="M 297.7802 -36.45398 L 269.15626 -36.45398 L 269.15626 -53.24886 L 297.7802 -53.24886 Z M 269.15626 -53.24886 " fill="#ffffff"/>
<text xml:space="preserve" transform="matrix(.68 0 -0 .68 -28.273362 446.8177)" font-size="11.9552" font-family="CMR12"><tspan y="-473.256" x="175.172 179.72693 184.92745 192.07666 196.48813">(e,f)</tspan></text>
<path transform="matrix(.8,0,0,-.8,-127.13161,87.08999)" d="M 254.57619 73.34996 L 312.36027 73.34996 L 312.36027 102.24199 L 254.57619 102.24199 Z " fill="#f2f2ff"/>
<path transform="matrix(.8,0,0,-.8,-127.13161,87.08999)" stroke-width=".3985" stroke-linecap="butt" stroke-miterlimit="10" stroke-linejoin="miter" fill="none" stroke="#323f99" d="M 254.57619 73.34996 L 312.36027 73.34996 L 312.36027 102.24199 L 254.57619 102.24199 Z "/>
<text xml:space="preserve" transform="matrix(.8 0 -0 .8 -49.29402 503.60838)" font-size="11.9552" font-family="CMR12"><tspan y="-604.358" x="181.697">D</tspan></text>
<path transform="matrix(.8,0,0,-.8,-127.13161,87.08999)" stroke-width=".3985" stroke-linecap="butt" stroke-miterlimit="10" stroke-linejoin="miter" fill="none" stroke="#000000" d="M 283.46824 73.15071 L 283.46824 16.55214 "/>
<path transform="matrix(.8,0,0,-.8,-127.13161,87.08999)" d="M 298.94609 53.24886 L 267.99037 53.24886 L 267.99037 36.45398 L 298.94609 36.45398 Z M 267.99037 36.45398 " fill="#ffffff"/>
<text xml:space="preserve" transform="matrix(.68 0 -0 .68 -28.413285 436.05345)" font-size="11.9552" font-family="CMR12"><tspan y="-562.958" x="174.006 178.56093 184.41898 191.56819 198.07183">(g,h)</tspan></text>
<text xml:space="preserve" transform="matrix(1 0 -0 1 -62.37 587.25)" font-size="11.9552" font-family="CMR12"><tspan y="0" x="394.07">1</tspan></text>
</g>
</g>
</svg>
