<?xml version='1.0' encoding='UTF-8'?>
<!-- This file was generated by dvisvgm 2.13.3 -->
<svg version='1.1' xmlns='http://www.w3.org/2000/svg' xmlns:xlink='http://www.w3.org/1999/xlink' width='146.8438pt' height='127.2072pt' viewBox='-72 -72.00005 146.8438 127.2072'>
<defs>
<font id='cmr10' horiz-adv-x='0'>
<font-face font-family='cmr10' units-per-em='1000' ascent='750' descent='250'/>
<glyph unicode='1' horiz-adv-x='500' vert-adv-y='500' glyph-name='one' d='M294 640C294 664 294 666 271 666C209 602 121 602 89 602V571C109 571 168 571 220 597V79C220 43 217 31 127 31H95V0C130 3 217 3 257 3S384 3 419 0V31H387C297 31 294 42 294 79V640Z'/>
<glyph unicode='2' horiz-adv-x='500' vert-adv-y='500' glyph-name='two' d='M127 77L233 180C389 318 449 372 449 472C449 586 359 666 237 666C124 666 50 574 50 485C50 429 100 429 103 429C120 429 155 441 155 482C155 508 137 534 102 534C94 534 92 534 89 533C112 598 166 635 224 635C315 635 358 554 358 472C358 392 308 313 253 251L61 37C50 26 50 24 50 0H421L449 174H424C419 144 412 100 402 85C395 77 329 77 307 77H127Z'/>
<glyph unicode='A' horiz-adv-x='750' vert-adv-y='750' glyph-name='A' d='M398 696C393 709 391 716 375 716S356 710 351 696L144 98C126 47 86 32 32 31V0C55 1 98 3 134 3C165 3 217 1 249 0V31C199 31 174 56 174 82C174 85 175 95 176 97L222 228H469L522 75C523 71 525 65 525 61C525 31 469 31 442 31V0C478 3 548 3 586 3C629 3 675 2 717 0V31H699C639 31 625 38 614 71L398 696ZM345 584L458 259H233L345 584Z'/>
<glyph unicode='B' horiz-adv-x='708' vert-adv-y='708' glyph-name='B' d='M222 366V612C222 645 224 652 271 652H395C492 652 527 567 527 514C527 450 478 366 367 366H222ZM458 357C555 376 624 440 624 514C624 601 532 683 402 683H36V652H60C137 652 139 641 139 605V78C139 42 137 31 60 31H36V0H428C561 0 651 89 651 183C651 270 569 345 458 357ZM396 31H271C224 31 222 38 222 71V344H410C509 344 551 251 551 184C551 113 499 31 396 31Z'/>
<glyph unicode='N' horiz-adv-x='750' vert-adv-y='750' glyph-name='N' d='M232 670C223 682 222 683 203 683H33V652H62C77 652 97 651 112 650C135 647 136 646 136 627V105C136 78 136 31 33 31V0C68 1 117 3 150 3S232 1 267 0V31C164 31 164 78 164 105V625C169 620 170 619 174 613L582 13C591 1 592 0 599 0C613 0 613 7 613 26V578C613 605 613 652 716 652V683C681 682 632 680 599 680S517 682 482 683V652C585 652 585 605 585 578V151L232 670Z'/>
<glyph unicode='R' horiz-adv-x='736' vert-adv-y='736' glyph-name='R' d='M224 353V612C224 635 224 647 246 650C256 652 285 652 305 652C395 652 507 648 507 503C507 434 483 353 335 353H224ZM435 340C532 364 610 425 610 503C610 599 496 683 349 683H35V652H59C136 652 138 641 138 605V78C138 42 136 31 59 31H35V0C71 3 142 3 181 3S291 3 327 0V31H303C226 31 224 42 224 78V331H339C355 331 397 331 432 297C470 261 470 230 470 163C470 98 470 58 511 20C552-16 607-22 637-22C715-22 732 60 732 88C732 94 732 105 719 105C708 105 708 96 707 89C701 18 666 0 641 0C592 0 584 51 570 144L557 224C539 288 490 321 435 340Z'/>
</font>
</defs>
<style type='text/css'>
<![CDATA[text.f0 {font-family:cmr10;font-size:9.96264px}
]]>
</style>
<g id='page1'>
<path d='M15.51175-57.710939L1.421875-71.8008L-12.66795-57.710939L1.421875-43.6211Z' fill='#fff1e6'/>
<path d='M15.51175-57.710939L1.421875-71.8008L-12.66795-57.710939L1.421875-43.6211Z' stroke='#a35e1a' fill='none' stroke-width='.3985' stroke-miterlimit='10'/>
<text class='f0' x='1.422248' y='-57.71007' transform='matrix(1 0 0 1 -6.15753 3.4039)'>R1</text>
<path d='M-71.80075 3.5586H-23.98045V-20.3516H-71.80075Z' fill='#f2f2ff'/>
<path d='M-71.80075 3.5586H-23.98045V-20.3516H-71.80075Z' stroke='#323f99' fill='none' stroke-width='.3985' stroke-miterlimit='10'/>
<text class='f0' x='1.422248' y='-57.71007' transform='matrix(1 0 0 1 -53.04935 52.71722)'>A</text>
<path d='M-35.74215-20.5508L-5.76562-50.52344' stroke='#000' fill='none' stroke-width='.3985' stroke-miterlimit='10'/>
<path d='M-27.81255-28.8125H-13.69925V-42.2617H-27.81255Z' fill='#fff'/>
<text class='f0' x='1.422248' y='-57.71007' transform='matrix(1 0 0 1 -25.91265 25.5769)'>N</text>
<path d='M26.82425 3.5586H74.64455V-20.3516H26.82425Z' fill='#f2f2ff'/>
<path d='M26.82425 3.5586H74.64455V-20.3516H26.82425Z' stroke='#323f99' fill='none' stroke-width='.3985' stroke-miterlimit='10'/>
<text class='f0' x='1.422248' y='-57.71007' transform='matrix(1 0 0 1 45.78485 52.71722)'>B</text>
<path d='M38.58985-20.5508L8.60938-50.52344' stroke='#000' fill='none' stroke-width='2.29141' stroke-miterlimit='10'/>
<path d='M38.58985-20.5508L8.60938-50.52344' stroke='#fff' fill='none' stroke-width='1.49442' stroke-miterlimit='10'/>
<path d='M17.78905-29.0078H29.41015V-42.0664H17.78905Z' fill='#fff'/>
<text class='f0' x='1.422248' y='-57.71007' transform='matrix(1 0 0 1 19.68595 25.3832)'>1</text>
<path d='M15.51175 40.918L1.421875 26.8242L-12.66795 40.918L1.421875 55.0079Z' fill='#fff1e6'/>
<path d='M15.51175 40.918L1.421875 26.8242L-12.66795 40.918L1.421875 55.0079Z' stroke='#a35e1a' fill='none' stroke-width='.3985' stroke-miterlimit='10'/>
<text class='f0' x='1.422248' y='-57.71007' transform='matrix(1 0 0 1 -6.15753 102.0305)'>R2</text>
<path d='M-5.76562 33.7305L-35.73825 3.7578' stroke='#000' fill='none' stroke-width='2.29141' stroke-miterlimit='10'/>
<path d='M-5.76562 33.7305L-35.73825 3.7578' stroke='#fff' fill='none' stroke-width='1.49442' stroke-miterlimit='10'/>
<path d='M-26.56255 25.2734H-14.93755V12.2148H-26.56255Z' fill='#fff'/>
<text class='f0' x='1.422248' y='-57.71007' transform='matrix(1 0 0 1 -24.66355 79.6641)'>1</text>
<path d='M8.60938 33.7305L38.58205 3.7578' stroke='#000' fill='none' stroke-width='.3985' stroke-miterlimit='10'/>
<path d='M16.53905 25.4687H30.65235V12.0195H16.53905Z' fill='#fff'/>
<text class='f0' x='1.422248' y='-57.71007' transform='matrix(1 0 0 1 18.43685 79.8578)'>N</text>
</g>
</svg>