<?xml version='1.0' encoding='UTF-8'?>
<!-- This file was generated by dvisvgm 2.13.3 -->
<svg version='1.1' xmlns='http://www.w3.org/2000/svg' xmlns:xlink='http://www.w3.org/1999/xlink' width='270.1839pt' height='122.9337pt' viewBox='-72.00005 -72.00005 270.1839 122.9337'>
<defs>
<font id='cmr10' horiz-adv-x='0'>
<font-face font-family='cmr10' units-per-em='1000' ascent='750' descent='250'/>
<glyph unicode='A' horiz-adv-x='750' vert-adv-y='750' glyph-name='A' d='M398 696C393 709 391 716 375 716S356 710 351 696L144 98C126 47 86 32 32 31V0C55 1 98 3 134 3C165 3 217 1 249 0V31C199 31 174 56 174 82C174 85 175 95 176 97L222 228H469L522 75C523 71 525 65 525 61C525 31 469 31 442 31V0C478 3 548 3 586 3C629 3 675 2 717 0V31H699C639 31 625 38 614 71L398 696ZM345 584L458 259H233L345 584Z'/>
<glyph unicode='B' horiz-adv-x='708' vert-adv-y='708' glyph-name='B' d='M222 366V612C222 645 224 652 271 652H395C492 652 527 567 527 514C527 450 478 366 367 366H222ZM458 357C555 376 624 440 624 514C624 601 532 683 402 683H36V652H60C137 652 139 641 139 605V78C139 42 137 31 60 31H36V0H428C561 0 651 89 651 183C651 270 569 345 458 357ZM396 31H271C224 31 222 38 222 71V344H410C509 344 551 251 551 184C551 113 499 31 396 31Z'/>
<glyph unicode='C' horiz-adv-x='722' vert-adv-y='722' glyph-name='C' d='M56 342C56 135 218-22 404-22C567-22 665 117 665 233C665 243 665 250 652 250C641 250 641 244 640 234C632 91 525 9 416 9C355 9 159 43 159 341C159 640 354 674 415 674C524 674 613 583 633 437C635 423 635 420 649 420C665 420 665 423 665 444V681C665 698 665 705 654 705C650 705 646 705 638 693L588 619C551 655 500 705 404 705C217 705 56 546 56 342Z'/>
<glyph unicode='D' horiz-adv-x='763' vert-adv-y='763' glyph-name='D' d='M35 683V652H59C136 652 138 641 138 605V78C138 42 136 31 59 31H35V0H401C569 0 707 148 707 336C707 526 572 683 401 683H35ZM273 31C226 31 224 38 224 71V612C224 645 226 652 273 652H373C435 652 504 630 555 559C598 500 607 414 607 336C607 225 588 165 552 116C532 89 475 31 374 31H273Z'/>
<glyph unicode='o' horiz-adv-x='500' vert-adv-y='500' glyph-name='o' d='M471 214C471 342 371 448 250 448C125 448 28 339 28 214C28 85 132-11 249-11C370-11 471 87 471 214ZM250 14C207 14 163 35 136 81C111 125 111 186 111 222C111 261 111 315 135 359C162 405 209 426 249 426C293 426 336 404 362 361S388 260 388 222C388 186 388 132 366 88C344 43 300 14 250 14Z'/>
</font>
<font id='cmsy10' horiz-adv-x='0'>
<font-face font-family='cmsy10' units-per-em='1000' ascent='775' descent='960'/>
<glyph unicode='∪' horiz-adv-x='666' vert-adv-y='666' glyph-name='union' d='M611 562C611 580 611 598 591 598S571 580 571 562V200C571 50 408 18 333 18C288 18 225 27 172 61C95 110 95 174 95 201V562C95 580 95 598 75 598S55 580 55 562V196C55 44 208-22 333-22C463-22 611 48 611 195V562Z'/>
</font>
</defs>
<style type='text/css'>
<![CDATA[text.f0 {font-family:cmsy10;font-size:9.96264px}
text.f1 {font-family:cmr10;font-size:9.96264px}
]]>
</style>
<g id='page1'>
<path d='M-71.8008 1.4219H-23.9805V-22.4883H-71.8008Z' fill='#f2f2ff'/>
<path d='M-71.8008 1.4219H-23.9805V-22.4883H-71.8008Z' stroke='#323f99' fill='none' stroke-width='.3985' stroke-miterlimit='10'/>
<text class='f1' x='-47.890418' y='-10.53292' transform='matrix(1 0 0 1 -3.736 3.40393)'>A</text>
<path d='M23.7422-10.53125C23.7422-16.03516 19.2812-20.49609 13.7773-20.49609C8.2773-20.49609 3.8164-16.03516 3.8164-10.53125C3.8164-5.03125 8.2773-.57031 13.7773-.57031C19.2812-.57031 23.7422-5.03125 23.7422-10.53125Z' fill='#eee'/>
<path d='M23.7422-10.53125C23.7422-16.03516 19.2812-20.49609 13.7773-20.49609C8.2773-20.49609 3.8164-16.03516 3.8164-10.53125C3.8164-5.03125 8.2773-.57031 13.7773-.57031C19.2812-.57031 23.7422-5.03125 23.7422-10.53125Z' stroke='#000' fill='none' stroke-width='.3985' stroke-miterlimit='10'/>
<text class='f1' x='-47.890418' y='-10.53292' transform='matrix(1 0 0 1 59.1789 2.14474)'>o</text>
<path d='M3.6172-10.53125H-23.7813' stroke='#000' fill='none' stroke-width='.3985' stroke-miterlimit='10'/>
<path d='M39.1836-47.8906H87.0036V-71.8008H39.1836Z' fill='#f2f2ff'/>
<path d='M39.1836-47.8906H87.0036V-71.8008H39.1836Z' stroke='#323f99' fill='none' stroke-width='.3985' stroke-miterlimit='10'/>
<text class='f1' x='-47.890418' y='-10.53292' transform='matrix(1 0 0 1 107.4544 -45.9094)'>B</text>
<path d='M39.1836 50.7344H87.0036V26.8242H39.1836Z' fill='#f2f2ff'/>
<path d='M39.1836 50.7344H87.0036V26.8242H39.1836Z' stroke='#323f99' fill='none' stroke-width='.3985' stroke-miterlimit='10'/>
<text class='f1' x='-47.890418' y='-10.53292' transform='matrix(1 0 0 1 107.3852 52.7172)'>C</text>
<path d='M50.9453-47.6914L20.9648-17.71875' stroke='#000' fill='none' stroke-width='.3985' stroke-miterlimit='10'/>
<path d='M35.4727-26.1563L42.5156-33.1992C44.8828-35.5664 38.8164-41.6328 36.4531-39.2656L29.4062-32.2227' stroke='#000' fill='none' stroke-width='.3985' stroke-miterlimit='10'/>
<path d='M50.9453 26.625L20.9648-3.34766' stroke='#000' fill='none' stroke-width='.3985' stroke-miterlimit='10'/>
<path d='M29.4062 11.1562L36.4531 18.2031C38.8164 20.5664 44.8828 14.5 42.5156 12.1328L35.4727 5.0898' stroke='#000' fill='none' stroke-width='.3985' stroke-miterlimit='10'/>
<path d='M122.3676-10.53125C122.3676-16.03516 117.9066-20.49609 112.4066-20.49609C106.9026-20.49609 102.4416-16.03516 102.4416-10.53125C102.4416-5.03125 106.9026-.57031 112.4066-.57031C117.9066-.57031 122.3676-5.03125 122.3676-10.53125Z' fill='#eee'/>
<path d='M122.3676-10.53125C122.3676-16.03516 117.9066-20.49609 112.4066-20.49609C106.9026-20.49609 102.4416-16.03516 102.4416-10.53125C102.4416-5.03125 106.9026-.57031 112.4066-.57031C117.9066-.57031 122.3676-5.03125 122.3676-10.53125Z' stroke='#000' fill='none' stroke-width='.3985' stroke-miterlimit='10'/>
<text class='f0' x='-47.890418' y='-10.53292' transform='matrix(1 0 0 1 156.9754 2.76744)'>∪</text>
<path d='M105.2186-17.71875L75.2456-47.6914' stroke='#000' fill='none' stroke-width='.3985' stroke-miterlimit='10'/>
<path d='M105.2186-3.34766L75.2456 26.625' stroke='#000' fill='none' stroke-width='.3985' stroke-miterlimit='10'/>
<path d='M150.1636 1.4219H197.9846V-22.4883H150.1636Z' fill='#f2f2ff'/>
<path d='M150.1636 1.4219H197.9846V-22.4883H150.1636Z' stroke='#323f99' fill='none' stroke-width='.3985' stroke-miterlimit='10'/>
<text class='f1' x='-47.890418' y='-10.53292' transform='matrix(1 0 0 1 218.1604 3.40393)'>D</text>
<path d='M149.9646-10.53125H122.5666' stroke='#000' fill='none' stroke-width='2.29141' stroke-miterlimit='10'/>
<path d='M149.9646-10.53125H122.5666' stroke='#fff' fill='none' stroke-width='1.49442' stroke-miterlimit='10'/>
<path d='M131.2856-6.24219H141.2456C144.5936-6.24219 144.5936-14.82422 141.2456-14.82422H131.2856' stroke='#000' fill='none' stroke-width='.3985' stroke-miterlimit='10'/>
</g>
</svg>