<?xml version='1.0' encoding='UTF-8'?>
<!-- This file was generated by dvisvgm 2.13.3 -->
<svg version='1.1' xmlns='http://www.w3.org/2000/svg' xmlns:xlink='http://www.w3.org/1999/xlink' width='150.2659pt' height='108.8438pt' viewBox='-72.00005 -72.00005 150.2659 108.8438'>
<defs>
<font id='cmr10' horiz-adv-x='0'>
<font-face font-family='cmr10' units-per-em='1000' ascent='750' descent='250'/>
<glyph unicode='A' horiz-adv-x='750' vert-adv-y='750' glyph-name='A' d='M398 696C393 709 391 716 375 716S356 710 351 696L144 98C126 47 86 32 32 31V0C55 1 98 3 134 3C165 3 217 1 249 0V31C199 31 174 56 174 82C174 85 175 95 176 97L222 228H469L522 75C523 71 525 65 525 61C525 31 469 31 442 31V0C478 3 548 3 586 3C629 3 675 2 717 0V31H699C639 31 625 38 614 71L398 696ZM345 584L458 259H233L345 584Z'/>
<glyph unicode='B' horiz-adv-x='708' vert-adv-y='708' glyph-name='B' d='M222 366V612C222 645 224 652 271 652H395C492 652 527 567 527 514C527 450 478 366 367 366H222ZM458 357C555 376 624 440 624 514C624 601 532 683 402 683H36V652H60C137 652 139 641 139 605V78C139 42 137 31 60 31H36V0H428C561 0 651 89 651 183C651 270 569 345 458 357ZM396 31H271C224 31 222 38 222 71V344H410C509 344 551 251 551 184C551 113 499 31 396 31Z'/>
<glyph unicode='C' horiz-adv-x='722' vert-adv-y='722' glyph-name='C' d='M56 342C56 135 218-22 404-22C567-22 665 117 665 233C665 243 665 250 652 250C641 250 641 244 640 234C632 91 525 9 416 9C355 9 159 43 159 341C159 640 354 674 415 674C524 674 613 583 633 437C635 423 635 420 649 420C665 420 665 423 665 444V681C665 698 665 705 654 705C650 705 646 705 638 693L588 619C551 655 500 705 404 705C217 705 56 546 56 342Z'/>
<glyph unicode='d' horiz-adv-x='555' vert-adv-y='555' glyph-name='d' d='M380 55V-11L527 0V31C457 31 449 38 449 87V694L305 683V652C375 652 383 645 383 596V380C354 416 311 442 257 442C139 442 34 344 34 215C34 88 132-11 246-11C310-11 355 23 380 55ZM380 323V118C380 100 380 98 369 81C339 33 294 11 251 11C206 11 170 37 146 75C120 116 117 173 117 214C117 251 119 311 148 356C169 387 207 420 261 420C296 420 338 405 369 360C380 343 380 341 380 323Z'/>
</font>
</defs>
<style type='text/css'>
<![CDATA[text.f0 {font-family:cmr10;font-size:9.96264px}
]]>
</style>
<g id='page1'>
<path d='M-71.8008-5.6211H-23.9805V-29.5312H-71.8008Z' fill='#f2f2ff'/>
<path d='M-71.8008-5.6211H-23.9805V-29.5312H-71.8008Z' stroke='#323f99' fill='none' stroke-width='.3985' stroke-miterlimit='10'/>
<text class='f0' x='-47.890418' y='-17.577578' transform='matrix(1 0 0 1 -3.736 3.4039)'>A</text>
<path d='M21.8477-17.578125C21.8477-23.07812 17.3867-27.53906 11.8867-27.53906C6.3828-27.53906 1.9219-23.07812 1.9219-17.578125C1.9219-12.07422 6.3828-7.61328 11.8867-7.61328C17.3867-7.61328 21.8477-12.07422 21.8477-17.578125Z' fill='#eee'/>
<path d='M21.8477-17.578125C21.8477-23.07812 17.3867-27.53906 11.8867-27.53906C6.3828-27.53906 1.9219-23.07812 1.9219-17.578125C1.9219-12.07422 6.3828-7.61328 11.8867-7.61328C17.3867-7.61328 21.8477-12.07422 21.8477-17.578125Z' stroke='#000' fill='none' stroke-width='.3985' stroke-miterlimit='10'/>
<text class='f0' x='-47.890418' y='-17.577578' transform='matrix(1 0 0 1 57.00925 3.4593)'>d</text>
<path d='M1.7227-17.578125H-23.7813' stroke='#000' fill='none' stroke-width='2.29141' stroke-miterlimit='10'/>
<path d='M1.7227-17.578125H-23.7813' stroke='#fff' fill='none' stroke-width='1.49442' stroke-miterlimit='10'/>
<path d='M30.2461-47.8906H78.0666V-71.8008H30.2461Z' fill='#f2f2ff'/>
<path d='M30.2461-47.8906H78.0666V-71.8008H30.2461Z' stroke='#323f99' fill='none' stroke-width='.3985' stroke-miterlimit='10'/>
<text class='f0' x='-47.890418' y='-17.577578' transform='matrix(1 0 0 1 98.5168 -38.8646)'>B</text>
<path d='M30.2461 36.6445H78.0666V12.7344H30.2461Z' fill='#f2f2ff'/>
<path d='M30.2461 36.6445H78.0666V12.7344H30.2461Z' stroke='#323f99' fill='none' stroke-width='.3985' stroke-miterlimit='10'/>
<text class='f0' x='-47.890418' y='-17.577578' transform='matrix(1 0 0 1 98.4476 45.6725)'>C</text>
<path d='M42-47.6914L19.0703-24.76172' stroke='#000' fill='none' stroke-width='.3985' stroke-miterlimit='10'/>
<path d='M30.0547-29.6797L37.0977-36.7227C39.4648-39.0898 33.3984-45.1562 31.0352-42.7891L23.9883-35.7461' stroke='#000' fill='none' stroke-width='.3985' stroke-miterlimit='10'/>
<path d='M42 12.5352L19.0703-10.39062' stroke='#000' fill='none' stroke-width='.3985' stroke-miterlimit='10'/>
<path d='M23.9883 .5898L31.0352 7.6367C33.3984 10 39.4648 3.9336 37.0977 1.5703L30.0547-5.4766' stroke='#000' fill='none' stroke-width='.3985' stroke-miterlimit='10'/>
</g>
</svg>