<?xml version='1.0' encoding='UTF-8'?>
<!-- This file was generated by dvisvgm 2.13.3 -->
<svg version='1.1' xmlns='http://www.w3.org/2000/svg' xmlns:xlink='http://www.w3.org/1999/xlink' width='187.6993pt' height='57.547pt' viewBox='-72.00005 -72.00005 187.6993 57.547'>
<defs>
<font id='cmr10' horiz-adv-x='0'>
<font-face font-family='cmr10' units-per-em='1000' ascent='750' descent='250'/>
<glyph unicode='1' horiz-adv-x='500' vert-adv-y='500' glyph-name='one' d='M294 640C294 664 294 666 271 666C209 602 121 602 89 602V571C109 571 168 571 220 597V79C220 43 217 31 127 31H95V0C130 3 217 3 257 3S384 3 419 0V31H387C297 31 294 42 294 79V640Z'/>
<glyph unicode='A' horiz-adv-x='750' vert-adv-y='750' glyph-name='A' d='M398 696C393 709 391 716 375 716S356 710 351 696L144 98C126 47 86 32 32 31V0C55 1 98 3 134 3C165 3 217 1 249 0V31C199 31 174 56 174 82C174 85 175 95 176 97L222 228H469L522 75C523 71 525 65 525 61C525 31 469 31 442 31V0C478 3 548 3 586 3C629 3 675 2 717 0V31H699C639 31 625 38 614 71L398 696ZM345 584L458 259H233L345 584Z'/>
<glyph unicode='B' horiz-adv-x='708' vert-adv-y='708' glyph-name='B' d='M222 366V612C222 645 224 652 271 652H395C492 652 527 567 527 514C527 450 478 366 367 366H222ZM458 357C555 376 624 440 624 514C624 601 532 683 402 683H36V652H60C137 652 139 641 139 605V78C139 42 137 31 60 31H36V0H428C561 0 651 89 651 183C651 270 569 345 458 357ZM396 31H271C224 31 222 38 222 71V344H410C509 344 551 251 551 184C551 113 499 31 396 31Z'/>
<glyph unicode='R' horiz-adv-x='736' vert-adv-y='736' glyph-name='R' d='M224 353V612C224 635 224 647 246 650C256 652 285 652 305 652C395 652 507 648 507 503C507 434 483 353 335 353H224ZM435 340C532 364 610 425 610 503C610 599 496 683 349 683H35V652H59C136 652 138 641 138 605V78C138 42 136 31 59 31H35V0C71 3 142 3 181 3S291 3 327 0V31H303C226 31 224 42 224 78V331H339C355 331 397 331 432 297C470 261 470 230 470 163C470 98 470 58 511 20C552-16 607-22 637-22C715-22 732 60 732 88C732 94 732 105 719 105C708 105 708 96 707 89C701 18 666 0 641 0C592 0 584 51 570 144L557 224C539 288 490 321 435 340Z'/>
<glyph unicode='x' horiz-adv-x='527' vert-adv-y='527' glyph-name='x' d='M287 235C317 273 355 322 379 348C410 384 451 399 498 400V431C472 429 442 428 416 428C386 428 333 430 320 431V400C341 398 349 385 349 369S339 340 334 334L272 256L194 357C185 367 185 369 185 375C185 390 200 399 220 400V431C194 430 128 428 112 428C91 428 44 429 17 431V400C87 400 88 399 135 339L234 210L140 91C92 33 33 31 12 31V0C38 2 69 3 95 3C124 3 166 1 190 0V31C168 34 161 47 161 62C161 84 190 117 251 189L327 89C335 78 348 62 348 56C348 47 339 32 312 31V0C342 1 398 3 420 3C447 3 486 2 516 0V31C462 31 444 33 421 62L287 235Z'/>
<glyph unicode='y' horiz-adv-x='527' vert-adv-y='527' glyph-name='y' d='M415 336C441 399 492 400 508 400V431C485 429 456 428 433 428C415 428 368 430 346 431V400C377 399 393 382 393 357C393 347 392 345 387 333L286 87L175 356C171 366 169 370 169 374C169 400 206 400 225 400V431C199 430 133 428 116 428C89 428 49 429 19 431V400C67 400 86 400 100 365L250 0C245-13 231-46 225-59C203-114 175-183 111-183C106-183 83-183 64-165C95-161 103-139 103-123C103-97 84-81 61-81C41-81 19-94 19-124C19-169 61-205 111-205C174-205 215-148 239-91L415 336Z'/>
<glyph unicode='z' horiz-adv-x='444' vert-adv-y='444' glyph-name='z' d='M390 401C399 412 399 414 399 418C399 431 391 431 373 431H53L42 270H67C73 372 92 409 202 409H316L37 32C28 21 28 19 28 14C28 0 35 0 54 0H384L401 187H376C367 69 346 25 230 25H112L390 401Z'/>
</font>
</defs>
<style type='text/css'>
<![CDATA[text.f0 {font-family:cmr10;font-size:9.96264px}
]]>
</style>
<g id='page1'>
<path d='M35.9375-28.742188L21.847656-42.832L7.7578-28.742188L21.847656-14.6523Z' fill='#fff1e6'/>
<path d='M35.9375-28.742188L21.847656-42.832L7.7578-28.742188L21.847656-14.6523Z' stroke='#a35e1a' fill='none' stroke-width='.3985' stroke-miterlimit='10'/>
<text class='f0' x='21.848169' y='-28.741691' transform='matrix(1 0 0 1 -3.6668 3.4039)'>R</text>
<path d='M30.81641-61.293C30.81641-67.0977 26.80078-71.8008 21.847656-71.8008C16.89453-71.8008 12.88281-67.0977 12.88281-61.293S16.89453-50.7852 21.847656-50.7852C26.80078-50.7852 30.81641-55.4883 30.81641-61.293Z' stroke='#000' fill='none' stroke-width='.3985' stroke-miterlimit='10'/>
<text class='f0' x='21.848169' y='-28.741691' transform='matrix(1 0 0 1 -2.6291 -32.3719)'>y</text>
<rect x='21.848169' y='-25.609059' height='.398484' width='5.258084' transform='matrix(1 0 0 1 -2.6291 -32.3719)'/>
<path d='M21.847656-50.5859V-43.1172' stroke='#000' fill='none' stroke-width='.3985' stroke-miterlimit='10'/>
<path d='M-71.8008-16.7852H-23.9805V-40.6953H-71.8008Z' fill='#f2f2ff'/>
<path d='M-71.8008-16.7852H-23.9805V-40.6953H-71.8008Z' stroke='#323f99' fill='none' stroke-width='.3985' stroke-miterlimit='10'/>
<text class='f0' x='21.848169' y='-28.741691' transform='matrix(1 0 0 1 -73.4755 3.4039)'>A</text>
<path d='M-23.7812-28.742188H7.4727' stroke='#000' fill='none' stroke-width='2.29141' stroke-miterlimit='10'/>
<path d='M-23.7812-28.742188H7.4727' stroke='#fff' fill='none' stroke-width='1.49442' stroke-miterlimit='10'/>
<path d='M-13.9648-22.21094H-2.3437V-35.27344H-13.9648Z' fill='#fff'/>
<text class='f0' x='21.848169' y='-28.741691' transform='matrix(1 0 0 1 -32.4925 3.2102)'>1</text>
<path d='M67.6758-16.7852H115.5V-40.6953H67.6758Z' fill='#f2f2ff'/>
<path d='M67.6758-16.7852H115.5V-40.6953H67.6758Z' stroke='#323f99' fill='none' stroke-width='.3985' stroke-miterlimit='10'/>
<text class='f0' x='21.848169' y='-28.741691' transform='matrix(1 0 0 1 66.211 3.4039)'>B</text>
<path d='M67.4766-28.742188H36.2227' stroke='#000' fill='none' stroke-width='2.29141' stroke-miterlimit='10'/>
<path d='M67.4766-28.742188H36.2227' stroke='#fff' fill='none' stroke-width='1.49442' stroke-miterlimit='10'/>
<path d='M46.0391-22.21094H57.6602V-35.27344H46.0391Z' fill='#fff'/>
<text class='f0' x='21.848169' y='-28.741691' transform='matrix(1 0 0 1 27.5111 3.2102)'>1</text>
<path d='M-38.9258-60.1953C-38.9258-65.2422-42.9375-69.3359-47.8906-69.3359S-56.8594-65.2422-56.8594-60.1953S-52.8437-51.0586-47.8906-51.0586S-38.9258-55.1484-38.9258-60.1953Z' stroke='#000' fill='none' stroke-width='.3985' stroke-miterlimit='10'/>
<text class='f0' x='21.848169' y='-28.741691' transform='matrix(1 0 0 1 -72.3686 -30.3061)'>x</text>
<rect x='21.848169' y='-27.546238' height='.398484' width='5.258084' transform='matrix(1 0 0 1 -72.3686 -30.3061)'/>
<path d='M-47.8906-50.8594V-40.8945' stroke='#000' fill='none' stroke-width='.3985' stroke-miterlimit='10'/>
<path d='M100.5547-60.1953C100.5547-65.2422 96.5391-69.3359 91.5859-69.3359C86.6367-69.3359 82.6211-65.2422 82.6211-60.1953S86.6367-51.0586 91.5859-51.0586C96.5391-51.0586 100.5547-55.1484 100.5547-60.1953Z' stroke='#000' fill='none' stroke-width='.3985' stroke-miterlimit='10'/>
<text class='f0' x='21.848169' y='-28.741691' transform='matrix(1 0 0 1 67.5255 -30.3061)'>z</text>
<rect x='21.848169' y='-27.546238' height='.398484' width='4.427838' transform='matrix(1 0 0 1 67.5255 -30.3061)'/>
<path d='M91.5859-50.8594V-40.8945' stroke='#000' fill='none' stroke-width='.3985' stroke-miterlimit='10'/>
</g>
</svg>