<?xml version='1.0' encoding='UTF-8'?>
<!-- This file was generated by dvisvgm 2.13.3 -->
<svg version='1.1' xmlns='http://www.w3.org/2000/svg' xmlns:xlink='http://www.w3.org/1999/xlink' width='194.922pt' height='30.9648pt' viewBox='-72.00005 -72 194.922 30.9648'>
<defs>
<font id='cmr10' horiz-adv-x='0'>
<font-face font-family='cmr10' units-per-em='1000' ascent='750' descent='250'/>
<glyph unicode='(' horiz-adv-x='388' vert-adv-y='388' glyph-name='parenleft' d='M331-240C331-237 331-235 314-218C189-92 157 97 157 250C157 424 195 598 318 723C331 735 331 737 331 740C331 747 327 750 321 750C311 750 221 682 162 555C111 445 99 334 99 250C99 172 110 51 165-62C225-185 311-250 321-250C327-250 331-247 331-240Z'/>
<glyph unicode=')' horiz-adv-x='388' vert-adv-y='388' glyph-name='parenright' d='M289 250C289 328 278 449 223 562C163 685 77 750 67 750C61 750 57 746 57 740C57 737 57 735 76 717C174 618 231 459 231 250C231 79 194-97 70-223C57-235 57-237 57-240C57-246 61-250 67-250C77-250 167-182 226-55C277 55 289 166 289 250Z'/>
<glyph unicode=',' horiz-adv-x='277' vert-adv-y='277' glyph-name='comma' d='M203 1C203 65 179 106 139 106C104 106 86 79 86 53S103 0 139 0C155 0 167 6 177 14L179 16C180 16 181 15 181 1C181-63 153-124 109-171C103-177 102-178 102-182C102-189 107-193 112-193C124-193 203-114 203 1Z'/>
<glyph unicode='0' horiz-adv-x='500' vert-adv-y='500' glyph-name='zero' d='M460 320C460 400 455 480 420 554C374 650 292 666 250 666C190 666 117 640 76 547C44 478 39 400 39 320C39 245 43 155 84 79C127-2 200-22 249-22C303-22 379-1 423 94C455 163 460 241 460 320ZM249 0C210 0 151 25 133 121C122 181 122 273 122 332C122 396 122 462 130 516C149 635 224 644 249 644C282 644 348 626 367 527C377 471 377 395 377 332C377 257 377 189 366 125C351 30 294 0 249 0Z'/>
<glyph unicode='1' horiz-adv-x='500' vert-adv-y='500' glyph-name='one' d='M294 640C294 664 294 666 271 666C209 602 121 602 89 602V571C109 571 168 571 220 597V79C220 43 217 31 127 31H95V0C130 3 217 3 257 3S384 3 419 0V31H387C297 31 294 42 294 79V640Z'/>
<glyph unicode='2' horiz-adv-x='500' vert-adv-y='500' glyph-name='two' d='M127 77L233 180C389 318 449 372 449 472C449 586 359 666 237 666C124 666 50 574 50 485C50 429 100 429 103 429C120 429 155 441 155 482C155 508 137 534 102 534C94 534 92 534 89 533C112 598 166 635 224 635C315 635 358 554 358 472C358 392 308 313 253 251L61 37C50 26 50 24 50 0H421L449 174H424C419 144 412 100 402 85C395 77 329 77 307 77H127Z'/>
<glyph unicode='8' horiz-adv-x='500' vert-adv-y='500' glyph-name='eight' d='M163 457C117 487 113 521 113 538C113 599 178 641 249 641C322 641 386 589 386 517C386 460 347 412 287 377L163 457ZM309 362C381 399 430 451 430 517C430 609 341 666 250 666C150 666 69 592 69 499C69 481 71 436 113 389C124 377 161 352 186 335C128 306 42 250 42 151C42 45 144-22 249-22C362-22 457 61 457 168C457 204 446 249 408 291C389 312 373 322 309 362ZM209 320L332 242C360 223 407 193 407 132C407 58 332 6 250 6C164 6 92 68 92 151C92 209 124 273 209 320Z'/>
<glyph unicode='A' horiz-adv-x='750' vert-adv-y='750' glyph-name='A' d='M398 696C393 709 391 716 375 716S356 710 351 696L144 98C126 47 86 32 32 31V0C55 1 98 3 134 3C165 3 217 1 249 0V31C199 31 174 56 174 82C174 85 175 95 176 97L222 228H469L522 75C523 71 525 65 525 61C525 31 469 31 442 31V0C478 3 548 3 586 3C629 3 675 2 717 0V31H699C639 31 625 38 614 71L398 696ZM345 584L458 259H233L345 584Z'/>
<glyph unicode='B' horiz-adv-x='708' vert-adv-y='708' glyph-name='B' d='M222 366V612C222 645 224 652 271 652H395C492 652 527 567 527 514C527 450 478 366 367 366H222ZM458 357C555 376 624 440 624 514C624 601 532 683 402 683H36V652H60C137 652 139 641 139 605V78C139 42 137 31 60 31H36V0H428C561 0 651 89 651 183C651 270 569 345 458 357ZM396 31H271C224 31 222 38 222 71V344H410C509 344 551 251 551 184C551 113 499 31 396 31Z'/>
<glyph unicode='R' horiz-adv-x='736' vert-adv-y='736' glyph-name='R' d='M224 353V612C224 635 224 647 246 650C256 652 285 652 305 652C395 652 507 648 507 503C507 434 483 353 335 353H224ZM435 340C532 364 610 425 610 503C610 599 496 683 349 683H35V652H59C136 652 138 641 138 605V78C138 42 136 31 59 31H35V0C71 3 142 3 181 3S291 3 327 0V31H303C226 31 224 42 224 78V331H339C355 331 397 331 432 297C470 261 470 230 470 163C470 98 470 58 511 20C552-16 607-22 637-22C715-22 732 60 732 88C732 94 732 105 719 105C708 105 708 96 707 89C701 18 666 0 641 0C592 0 584 51 570 144L557 224C539 288 490 321 435 340Z'/>
</font>
</defs>
<style type='text/css'>
<![CDATA[text.f0 {font-family:cmr10;font-size:9.96264px}
]]>
</style>
<g id='page1'>
<path d='M39.5508-56.51953L25.460938-70.6094L11.3711-56.51953L25.460938-42.4258Z' fill='#fff1e6'/>
<path d='M39.5508-56.51953L25.460938-70.6094L11.3711-56.51953L25.460938-42.4258Z' stroke='#a35e1a' fill='none' stroke-width='.3985' stroke-miterlimit='10'/>
<text class='f0' x='25.460918' y='-56.518494' transform='matrix(1 0 0 1 -3.6668 3.4039)'>R</text>
<path d='M-71.8008-44.5625H-23.9805V-68.4727H-71.8008Z' fill='#f2f2ff'/>
<path d='M-71.8008-44.5625H-23.9805V-68.4727H-71.8008Z' stroke='#323f99' fill='none' stroke-width='.3985' stroke-miterlimit='10'/>
<text class='f0' x='25.460918' y='-56.518494' transform='matrix(1 0 0 1 -77.0883 3.4039)'>A</text>
<path d='M74.9023-44.5625H122.7227V-68.4727H74.9023Z' fill='#f2f2ff'/>
<path d='M74.9023-44.5625H122.7227V-68.4727H74.9023Z' stroke='#323f99' fill='none' stroke-width='.3985' stroke-miterlimit='10'/>
<text class='f0' x='25.460918' y='-56.518494' transform='matrix(1 0 0 1 69.8238 3.4039)'>B</text>
<path d='M74.7031-56.51953H39.8359' stroke='#000' fill='none' stroke-width='.3985' stroke-miterlimit='10'/>
<path d='M43.707-48.21484H70.8281V-64.82031H43.707Z' fill='#fff'/>
<text class='f0' x='25.460918' y='-56.518494' transform='matrix(1 0 0 1 21.5686 2.4907)'>(8,8)</text>
<path d='M18.27344-63.70312L-23.7812-63.6914' stroke='#000' fill='none' stroke-width='.3985' stroke-miterlimit='10'/>
<path d='M-16.3125-55.39453H10.8086V-72H-16.3125Z' fill='#fff'/>
<text class='f0' x='25.460918' y='-56.518494' transform='matrix(1 0 0 1 -38.4539 -4.6891)'>(1,2)</text>
<path d='M18.27344-49.33203L-23.7812-49.34375' stroke='#000' fill='none' stroke-width='.3985' stroke-miterlimit='10'/>
<path d='M-16.3125-41.0352H10.8086V-57.64062H-16.3125Z' fill='#fff'/>
<text class='f0' x='25.460918' y='-56.518494' transform='matrix(1 0 0 1 -38.4539 9.6704)'>(0,1)</text>
</g>
</svg>